{
  "title": "Easy understand programming UI/UX Development",
  "text": "Learn Step by Step How to UI/UX Development in Programming for Beginner to Expert",
  "button": [
    {
      "title": "GET START",
      "url": "/docs"
     
    }
  ]
}
